127.0.0.1 - - [16/Jul/2018:08:30:18 -0300] "GET / HTTP/1.1" 404 951
0:0:0:0:0:0:0:1 - - [16/Jul/2018:08:55:55 -0300] "GET /MisFinance3/rest/discipulo/countUltimosDiscipulosRegistrados HTTP/1.1" 200 25
0:0:0:0:0:0:0:1 - - [16/Jul/2018:09:00:58 -0300] "GET /MisFinance3/rest/discipulo/countUltimosDiscipulosRegistrados HTTP/1.1" 200 25
0:0:0:0:0:0:0:1 - - [16/Jul/2018:09:03:08 -0300] "GET /MisFinance3/rest/discipulo/countUltimosDiscipulosRegistrados HTTP/1.1" 200 25
0:0:0:0:0:0:0:1 - - [16/Jul/2018:09:04:36 -0300] "GET /MisFinance3/rest/discipulo/countUltimosDiscipulosRegistrados HTTP/1.1" 200 25
192.168.0.20 - - [16/Jul/2018:09:11:57 -0300] "GET / HTTP/1.1" 404 951
127.0.0.1 - - [16/Jul/2018:09:16:16 -0300] "GET / HTTP/1.1" 404 951
0:0:0:0:0:0:0:1 - - [16/Jul/2018:09:16:43 -0300] "GET /MisFinance3/rest/rel/countUltimosDizimosRegistrados HTTP/1.1" 204 -
0:0:0:0:0:0:0:1 - - [16/Jul/2018:09:16:57 -0300] "GET /MisFinance3/rest/discipulo/countUltimosDiscipulosRegistrados HTTP/1.1" 200 25
0:0:0:0:0:0:0:1 - - [16/Jul/2018:09:17:22 -0300] "GET /MisFinance3/rest/rel/countUltimosDizimosRegistrados HTTP/1.1" 204 -
127.0.0.1 - - [16/Jul/2018:09:18:47 -0300] "GET / HTTP/1.1" 404 951
0:0:0:0:0:0:0:1 - - [16/Jul/2018:09:19:36 -0300] "GET /MisFinance3/rest/rel/countUltimosDiscipulosRegistrados HTTP/1.1" 204 -
127.0.0.1 - - [16/Jul/2018:09:24:17 -0300] "GET / HTTP/1.1" 404 951
0:0:0:0:0:0:0:1 - - [16/Jul/2018:09:24:24 -0300] "GET /MisFinance3/rest/rel/countUltimosDiscipulosRegistrados HTTP/1.1" 204 -
0:0:0:0:0:0:0:1 - - [16/Jul/2018:09:24:40 -0300] "GET /MisFinance3/rest/rel/countUltimosDiscipulosRegistrados HTTP/1.1" 204 -
0:0:0:0:0:0:0:1 - - [16/Jul/2018:09:25:00 -0300] "GET /MisFinance3/rest/rel/countUltimosDiscipulosRegistrados HTTP/1.1" 204 -
127.0.0.1 - - [16/Jul/2018:09:26:15 -0300] "GET / HTTP/1.1" 404 951
0:0:0:0:0:0:0:1 - - [16/Jul/2018:09:26:32 -0300] "GET /MisFinance3/rest/rel/countUltimosDiscipulosRegistrados HTTP/1.1" 200 25
0:0:0:0:0:0:0:1 - - [16/Jul/2018:09:26:58 -0300] "GET /MisFinance3/rest/discipulo/countUltimosDiscipulosRegistrados HTTP/1.1" 200 25
127.0.0.1 - - [16/Jul/2018:09:31:18 -0300] "GET / HTTP/1.1" 404 951
0:0:0:0:0:0:0:1 - - [16/Jul/2018:09:32:17 -0300] "GET /MisFinance3/rest/rel/countUltimosDiscipulosRegistrados HTTP/1.1" 200 25
0:0:0:0:0:0:0:1 - - [16/Jul/2018:09:32:24 -0300] "GET /MisFinance3/rest/rel/CountDizimosAno HTTP/1.1" 404 967
0:0:0:0:0:0:0:1 - - [16/Jul/2018:09:32:51 -0300] "GET /MisFinance3/rest/rel/countUltimosDizimosRegistrados HTTP/1.1" 204 -
127.0.0.1 - - [16/Jul/2018:09:46:00 -0300] "GET / HTTP/1.1" 404 951
0:0:0:0:0:0:0:1 - - [16/Jul/2018:09:46:09 -0300] "GET /MisFinance3/rest/rel/CountDizimosAno HTTP/1.1" 404 967
0:0:0:0:0:0:0:1 - - [16/Jul/2018:09:46:39 -0300] "GET /MisFinance3/rest/rel/countUltimosDizimosRegistrados HTTP/1.1" 200 25
127.0.0.1 - - [16/Jul/2018:09:48:14 -0300] "GET / HTTP/1.1" 404 951
0:0:0:0:0:0:0:1 - - [16/Jul/2018:09:49:06 -0300] "GET /MisFinance3/rest/rel/countUltimosDizimosRegistrados HTTP/1.1" 200 25
127.0.0.1 - - [16/Jul/2018:09:52:35 -0300] "GET / HTTP/1.1" 404 951
0:0:0:0:0:0:0:1 - - [16/Jul/2018:09:52:52 -0300] "GET /MisFinance3/rest/rel/countUltimosDizimosRegistrados HTTP/1.1" 200 25
127.0.0.1 - - [16/Jul/2018:09:54:22 -0300] "GET / HTTP/1.1" 404 951
127.0.0.1 - - [16/Jul/2018:10:00:17 -0300] "GET / HTTP/1.1" 404 951
0:0:0:0:0:0:0:1 - - [16/Jul/2018:10:00:19 -0300] "GET /MisFinance3/WEB-INF/classes/br/com/mis/dao/DizimoDao.java HTTP/1.1" 404 949
0:0:0:0:0:0:0:1 - - [16/Jul/2018:10:00:44 -0300] "GET /MisFinance3/rest/rel/countUltimosDizimosRegistrados HTTP/1.1" 200 25
0:0:0:0:0:0:0:1 - - [16/Jul/2018:10:00:44 -0300] "GET /MisFinance3/rest/rel/countUltimosDizimosRegistrados HTTP/1.1" 200 25
0:0:0:0:0:0:0:1 - - [16/Jul/2018:10:01:07 -0300] "GET /MisFinance3/rest/rel/countUltimosDizimosRegistrados HTTP/1.1" 200 25
127.0.0.1 - - [16/Jul/2018:10:02:46 -0300] "GET / HTTP/1.1" 404 951
0:0:0:0:0:0:0:1 - - [16/Jul/2018:10:03:01 -0300] "GET /MisFinance3/rest/rel/countUltimosDizimosRegistrados HTTP/1.1" 200 25
127.0.0.1 - - [16/Jul/2018:10:04:16 -0300] "GET / HTTP/1.1" 404 951
0:0:0:0:0:0:0:1 - - [16/Jul/2018:10:05:21 -0300] "GET /MisFinance3/rest/rel/countUltimosDizimosRegistrados HTTP/1.1" 204 -
127.0.0.1 - - [16/Jul/2018:10:06:19 -0300] "GET / HTTP/1.1" 404 951
0:0:0:0:0:0:0:1 - - [16/Jul/2018:10:06:37 -0300] "GET /MisFinance3/rest/rel/countUltimosDizimosRegistrados HTTP/1.1" 200 37
127.0.0.1 - - [16/Jul/2018:10:20:22 -0300] "GET / HTTP/1.1" 404 951
0:0:0:0:0:0:0:1 - - [16/Jul/2018:10:21:08 -0300] "GET /MisFinance3/WEB-INF/classes/br/com/mis/dao/DizimoDao.java HTTP/1.1" 404 949
0:0:0:0:0:0:0:1 - - [16/Jul/2018:10:23:26 -0300] "GET /MisFinance3/rest/rel/countUltimosDizimosRegistrados HTTP/1.1" 200 25
127.0.0.1 - - [16/Jul/2018:10:26:54 -0300] "GET / HTTP/1.1" 404 951
0:0:0:0:0:0:0:1 - - [16/Jul/2018:10:27:13 -0300] "GET /MisFinance3/rest/rel/countUltimosDizimosRegistrados HTTP/1.1" 200 25
127.0.0.1 - - [16/Jul/2018:10:30:21 -0300] "GET / HTTP/1.1" 404 951
0:0:0:0:0:0:0:1 - - [16/Jul/2018:10:30:32 -0300] "GET /MisFinance3/rest/rel/countUltimosDizimosRegistrados HTTP/1.1" 204 -
127.0.0.1 - - [16/Jul/2018:10:34:30 -0300] "GET / HTTP/1.1" 404 951
0:0:0:0:0:0:0:1 - - [16/Jul/2018:10:34:46 -0300] "GET /MisFinance3/rest/rel/countUltimosDizimosRegistrados HTTP/1.1" 200 26
0:0:0:0:0:0:0:1 - - [16/Jul/2018:10:35:25 -0300] "GET /MisFinance3/rest/geracao/list HTTP/1.1" 200 108
0:0:0:0:0:0:0:1 - - [16/Jul/2018:10:35:25 -0300] "GET /MisFinance3/rest/lider/list HTTP/1.1" 200 1486
0:0:0:0:0:0:0:1 - - [16/Jul/2018:10:35:29 -0300] "OPTIONS /MisFinance3/rest/discipulo/list/ HTTP/1.1" 200 881
0:0:0:0:0:0:0:1 - - [16/Jul/2018:10:35:31 -0300] "POST /MisFinance3/rest/discipulo/list/ HTTP/1.1" 200 586
0:0:0:0:0:0:0:1 - - [16/Jul/2018:10:37:17 -0300] "GET /MisFinance3/rest/lider/list HTTP/1.1" 200 1486
0:0:0:0:0:0:0:1 - - [16/Jul/2018:10:37:17 -0300] "GET /MisFinance3/rest/geracao/list HTTP/1.1" 200 108
0:0:0:0:0:0:0:1 - - [16/Jul/2018:10:37:20 -0300] "OPTIONS /MisFinance3/rest/discipulo/list/ HTTP/1.1" 200 881
0:0:0:0:0:0:0:1 - - [16/Jul/2018:10:37:25 -0300] "POST /MisFinance3/rest/discipulo/list/ HTTP/1.1" 200 586
0:0:0:0:0:0:0:1 - - [16/Jul/2018:10:37:36 -0300] "OPTIONS /MisFinance3/rest/dizimo/insert/ HTTP/1.1" 200 783
0:0:0:0:0:0:0:1 - - [16/Jul/2018:10:37:40 -0300] "POST /MisFinance3/rest/dizimo/insert/ HTTP/1.1" 200 32
0:0:0:0:0:0:0:1 - - [16/Jul/2018:10:37:58 -0300] "GET /MisFinance3/rest/geracao/list HTTP/1.1" 200 108
0:0:0:0:0:0:0:1 - - [16/Jul/2018:10:37:58 -0300] "GET /MisFinance3/rest/lider/list HTTP/1.1" 200 1486
0:0:0:0:0:0:0:1 - - [16/Jul/2018:10:38:04 -0300] "GET /MisFinance3/rest/discipulo/countUltimosDiscipulosRegistrados HTTP/1.1" 200 25
0:0:0:0:0:0:0:1 - - [16/Jul/2018:10:38:09 -0300] "GET /MisFinance3/rest/rel/countUltimosDizimosRegistrados HTTP/1.1" 200 26
0:0:0:0:0:0:0:1 - - [16/Jul/2018:10:38:23 -0300] "GET /MisFinance3/rest/lider/list HTTP/1.1" 200 1486
0:0:0:0:0:0:0:1 - - [16/Jul/2018:10:38:23 -0300] "GET /MisFinance3/rest/geracao/list HTTP/1.1" 200 108
0:0:0:0:0:0:0:1 - - [16/Jul/2018:10:38:28 -0300] "OPTIONS /MisFinance3/rest/discipulo/list/ HTTP/1.1" 200 881
0:0:0:0:0:0:0:1 - - [16/Jul/2018:10:38:30 -0300] "POST /MisFinance3/rest/discipulo/list/ HTTP/1.1" 200 586
0:0:0:0:0:0:0:1 - - [16/Jul/2018:10:39:10 -0300] "OPTIONS /MisFinance3/rest/dizimo/insert/ HTTP/1.1" 200 783
0:0:0:0:0:0:0:1 - - [16/Jul/2018:10:39:14 -0300] "POST /MisFinance3/rest/dizimo/insert/ HTTP/1.1" 200 32
0:0:0:0:0:0:0:1 - - [16/Jul/2018:10:39:34 -0300] "GET /MisFinance3/rest/rel/countUltimosDizimosRegistrados HTTP/1.1" 200 26
0:0:0:0:0:0:0:1 - - [16/Jul/2018:12:31:01 -0300] "GET /MisFinance3/rest/lider/list HTTP/1.1" 200 1486
0:0:0:0:0:0:0:1 - - [16/Jul/2018:12:31:01 -0300] "GET /MisFinance3/rest/geracao/list HTTP/1.1" 200 108
0:0:0:0:0:0:0:1 - - [16/Jul/2018:12:31:06 -0300] "GET /MisFinance3/rest/discipulo/countUltimosDiscipulosRegistrados HTTP/1.1" 200 25
0:0:0:0:0:0:0:1 - - [16/Jul/2018:12:32:46 -0300] "GET /MisFinance3/rest/rel/countUltimosDizimosRegistrados HTTP/1.1" 200 26
0:0:0:0:0:0:0:1 - - [16/Jul/2018:12:35:24 -0300] "GET /MisFinance3/rest/rel/countUltimosDizimosRegistrados HTTP/1.1" 200 26
0:0:0:0:0:0:0:1 - - [16/Jul/2018:12:36:23 -0300] "GET /MisFinance3/rest/rel/countUltimosDizimosRegistrados HTTP/1.1" 200 26
209.126.136.4 - - [16/Jul/2018:13:03:25 -0300] "GET / HTTP/1.1" 404 951
46.174.191.29 - - [16/Jul/2018:13:26:52 -0300] "GET / HTTP/1.0" 404 951
0:0:0:0:0:0:0:1 - - [16/Jul/2018:13:31:29 -0300] "GET /MisFinance3/rest/rel/countUltimosDizimosRegistrados HTTP/1.1" 200 26
0:0:0:0:0:0:0:1 - - [16/Jul/2018:13:32:27 -0300] "GET /MisFinance3/rest/rel/countUltimosDizimosRegistrados HTTP/1.1" 200 26
127.0.0.1 - - [16/Jul/2018:13:41:44 -0300] "GET / HTTP/1.1" 404 951
0:0:0:0:0:0:0:1 - - [16/Jul/2018:13:42:01 -0300] "GET /MisFinance3/rest/rel/countUltimasOfertasRegistradas HTTP/1.1" 200 25
0:0:0:0:0:0:0:1 - - [16/Jul/2018:13:42:01 -0300] "GET /MisFinance3/rest/rel/countUltimasOfertasRegistradas HTTP/1.1" 200 25
0:0:0:0:0:0:0:1 - - [16/Jul/2018:13:44:25 -0300] "GET /MisFinance3/rest/rel/countUltimasOfertasRegistradas HTTP/1.1" 200 25
0:0:0:0:0:0:0:1 - - [16/Jul/2018:13:44:34 -0300] "GET /MisFinance3/rest/rel/countUltimosDizimosRegistrados HTTP/1.1" 200 26
212.47.227.163 - - [16/Jul/2018:13:47:29 -0300] "GET / HTTP/1.1" 404 951
179.236.241.141 - - [16/Jul/2018:13:49:19 -0300] "GET /MisFinance3/rest/rel/countUltimasOfertasRegistradas HTTP/1.1" 200 25
0:0:0:0:0:0:0:1 - - [16/Jul/2018:13:49:20 -0300] "GET /MisFinance3/rest/rel/countUltimosDizimosRegistrados HTTP/1.1" 200 26
0:0:0:0:0:0:0:1 - - [16/Jul/2018:13:50:55 -0300] "GET /MisFinance3/rest/rel/countUltimosDizimosRegistrados HTTP/1.1" 200 26
179.236.241.141 - - [16/Jul/2018:13:50:56 -0300] "GET /MisFinance3/rest/rel/countUltimasOfertasRegistradas HTTP/1.1" 200 25
0:0:0:0:0:0:0:1 - - [16/Jul/2018:13:51:43 -0300] "GET /MisFinance3/rest/rel/countUltimosDizimosRegistrados HTTP/1.1" 200 26
179.236.241.141 - - [16/Jul/2018:13:51:44 -0300] "GET /MisFinance3/rest/rel/countUltimasOfertasRegistradas HTTP/1.1" 200 25
0:0:0:0:0:0:0:1 - - [16/Jul/2018:13:53:24 -0300] "GET /MisFinance3/rest/rel/countUltimosDizimosRegistrados HTTP/1.1" 200 26
179.236.241.141 - - [16/Jul/2018:13:53:25 -0300] "GET /MisFinance3/rest/rel/countUltimasOfertasRegistradas HTTP/1.1" 200 25
179.236.241.141 - - [16/Jul/2018:14:00:27 -0300] "GET /MisFinance3/rest/rel/countUltimasOfertasRegistradas HTTP/1.1" 200 25
0:0:0:0:0:0:0:1 - - [16/Jul/2018:14:00:27 -0300] "GET /MisFinance3/rest/rel/countUltimosDizimosRegistrados HTTP/1.1" 200 26
179.236.241.141 - - [16/Jul/2018:14:01:11 -0300] "OPTIONS /MisFinance3/rest/oferta/insert HTTP/1.1" 200 794
179.236.241.141 - - [16/Jul/2018:14:01:15 -0300] "POST /MisFinance3/rest/oferta/insert HTTP/1.1" 200 2
179.236.241.141 - - [16/Jul/2018:14:01:30 -0300] "GET /MisFinance3/rest/rel/countUltimasOfertasRegistradas HTTP/1.1" 200 25
0:0:0:0:0:0:0:1 - - [16/Jul/2018:14:01:31 -0300] "GET /MisFinance3/rest/rel/countUltimosDizimosRegistrados HTTP/1.1" 200 26
0:0:0:0:0:0:0:1 - - [16/Jul/2018:19:42:25 -0300] "GET /MisFinance3/rest/rel/countUltimosDizimosRegistrados HTTP/1.1" 200 26
179.236.241.141 - - [16/Jul/2018:19:42:25 -0300] "GET /MisFinance3/rest/rel/countUltimasOfertasRegistradas HTTP/1.1" 200 25
0:0:0:0:0:0:0:1 - - [16/Jul/2018:19:43:45 -0300] "GET /MisFinance3/rest/rel/countUltimosDizimosRegistrados HTTP/1.1" 200 26
179.236.241.141 - - [16/Jul/2018:19:43:46 -0300] "GET /MisFinance3/rest/rel/countUltimasOfertasRegistradas HTTP/1.1" 200 25
0:0:0:0:0:0:0:1 - - [16/Jul/2018:19:44:15 -0300] "GET /MisFinance3/rest/discipulo/countUltimosDiscipulosRegistrados HTTP/1.1" 200 25
127.0.0.1 - - [16/Jul/2018:20:00:02 -0300] "GET / HTTP/1.1" 404 951
0:0:0:0:0:0:0:1 - - [16/Jul/2018:20:02:19 -0300] "GET /MisFinance3/rest/rel/medUltimasOfertasRegistradas HTTP/1.1" 204 -
127.0.0.1 - - [16/Jul/2018:23:43:34 -0300] "GET / HTTP/1.1" 404 951
46.174.191.32 - - [16/Jul/2018:23:47:39 -0300] "GET / HTTP/1.0" 404 951
