127.0.0.1 - - [20/Jul/2018:04:00:27 -0300] "GET / HTTP/1.1" 404 951
0:0:0:0:0:0:0:1 - - [20/Jul/2018:04:00:59 -0300] "GET /MisFinance3/rest/rel/countUltimosDiscipulosRegistrados HTTP/1.1" 200 25
0:0:0:0:0:0:0:1 - - [20/Jul/2018:04:01:01 -0300] "GET /MisFinance3/rest/rel/countDiscipulosPorGeracao HTTP/1.1" 200 901
127.0.0.1 - - [20/Jul/2018:04:23:29 -0300] "GET / HTTP/1.1" 404 951
0:0:0:0:0:0:0:1 - - [20/Jul/2018:04:23:30 -0300] "GET /MisFinance3/rest/rede/insert/%7BnomeRede:%22Homens%22,id_fkLiderRede:4%7D HTTP/1.1" 404 967
0:0:0:0:0:0:0:1 - - [20/Jul/2018:04:24:02 -0300] "GET /MisFinance3/rest/rede/rel/countDiscipulosPorRede HTTP/1.1" 404 967
0:0:0:0:0:0:0:1 - - [20/Jul/2018:04:24:46 -0300] "GET /MisFinance3/rest/rede/rel/countDiscipulosPorRede HTTP/1.1" 404 967
127.0.0.1 - - [20/Jul/2018:04:34:12 -0300] "GET / HTTP/1.1" 404 951
0:0:0:0:0:0:0:1 - - [20/Jul/2018:04:35:58 -0300] "GET /MisFinance3/rest/rel/countDiscipulosPorRede HTTP/1.1" 200 949
127.0.0.1 - - [20/Jul/2018:04:37:17 -0300] "GET / HTTP/1.1" 404 951
0:0:0:0:0:0:0:1 - - [20/Jul/2018:04:37:54 -0300] "GET /MisFinance3/rest/rel/countDiscipulosPorRede HTTP/1.1" 200 1905
196.52.43.93 - - [20/Jul/2018:05:11:54 -0300] "GET / HTTP/1.1" 404 951
163.172.149.131 - - [20/Jul/2018:05:13:45 -0300] "GET / HTTP/1.1" 404 951
46.209.29.151 - - [20/Jul/2018:05:33:44 -0300] "GET / HTTP/1.1" 404 951
46.174.191.31 - - [20/Jul/2018:05:40:25 -0300] "GET / HTTP/1.0" 404 951
88.148.40.138 - - [20/Jul/2018:06:05:02 -0300] "GET / HTTP/1.1" 404 951
151.234.183.163 - - [20/Jul/2018:06:11:15 -0300] "GET / HTTP/1.1" 404 951
212.47.227.163 - - [20/Jul/2018:06:12:07 -0300] "GET / HTTP/1.1" 404 951
171.101.213.150 - - [20/Jul/2018:06:46:37 -0300] "GET / HTTP/1.1" 404 951
212.47.244.68 - - [20/Jul/2018:06:54:23 -0300] "GET / HTTP/1.1" 404 951
5.234.157.87 - - [20/Jul/2018:06:55:25 -0300] "GET / HTTP/1.1" 404 951
77.159.74.153 - - [20/Jul/2018:07:19:21 -0300] "GET / HTTP/1.1" 404 951
192.168.1.6 - - [20/Jul/2018:12:09:33 -0300] "GET / HTTP/1.1" 404 951
78.108.177.52 - - [20/Jul/2018:12:40:33 -0300] "GET / HTTP/1.0" 404 951
213.155.48.134 - - [20/Jul/2018:13:00:52 -0300] "GET / HTTP/1.1" 404 951
177.124.19.178 - - [20/Jul/2018:13:12:31 -0300] "GET / HTTP/1.1" 404 951
46.174.191.32 - - [20/Jul/2018:13:21:11 -0300] "GET / HTTP/1.0" 404 951
84.54.146.236 - - [20/Jul/2018:13:37:02 -0300] "GET / HTTP/1.1" 404 951
0:0:0:0:0:0:0:1 - - [20/Jul/2018:17:15:54 -0300] "GET /MisFinance3/rest/rel/countDiscipulosPorRede HTTP/1.1" 200 1905
125.27.240.31 - - [20/Jul/2018:17:19:50 -0300] "GET / HTTP/1.0" 404 951
0:0:0:0:0:0:0:1 - - [20/Jul/2018:17:19:54 -0300] "GET /MisFinance3/rest/rel/countDiscipulosPorRede HTTP/1.1" 200 1905
0:0:0:0:0:0:0:1 - - [20/Jul/2018:17:21:22 -0300] "GET /MisFinance3/rest/rel/countDiscipulosPorRede HTTP/1.1" 200 1905
0:0:0:0:0:0:0:1 - - [20/Jul/2018:17:25:30 -0300] "GET /MisFinance3/rest/rel/countUltimosDiscipulosRegistrados HTTP/1.1" 200 25
0:0:0:0:0:0:0:1 - - [20/Jul/2018:17:25:32 -0300] "GET /MisFinance3/rest/rel/countDiscipulosPorGeracao HTTP/1.1" 200 949
0:0:0:0:0:0:0:1 - - [20/Jul/2018:17:28:22 -0300] "GET /MisFinance3/rest/rel/countUltimosDiscipulosRegistrados HTTP/1.1" 200 25
0:0:0:0:0:0:0:1 - - [20/Jul/2018:17:28:24 -0300] "GET /MisFinance3/rest/rel/countDiscipulosPorGeracao HTTP/1.1" 200 949
0:0:0:0:0:0:0:1 - - [20/Jul/2018:17:28:43 -0300] "GET /MisFinance3/rest/rel/countDiscipulosPorRede HTTP/1.1" 200 1905
127.0.0.1 - - [20/Jul/2018:17:36:34 -0300] "GET / HTTP/1.1" 404 951
0:0:0:0:0:0:0:1 - - [20/Jul/2018:17:37:13 -0300] "GET /MisFinance3/rest/rel/countDiscipulosPorRede HTTP/1.1" 200 952
127.0.0.1 - - [20/Jul/2018:17:39:50 -0300] "GET / HTTP/1.1" 404 951
127.0.0.1 - - [20/Jul/2018:17:41:21 -0300] "GET / HTTP/1.1" 404 951
0:0:0:0:0:0:0:1 - - [20/Jul/2018:17:42:01 -0300] "GET /MisFinance3/rest/rel/countDiscipulosPorRede HTTP/1.1" 200 1905
0:0:0:0:0:0:0:1 - - [20/Jul/2018:17:43:18 -0300] "GET /MisFinance3/rest/rel/countDiscipulosPorRede HTTP/1.1" 200 1905
0:0:0:0:0:0:0:1 - - [20/Jul/2018:17:44:13 -0300] "GET /MisFinance3/rest/rel/countUltimosDiscipulosRegistrados HTTP/1.1" 200 25
0:0:0:0:0:0:0:1 - - [20/Jul/2018:17:44:16 -0300] "GET /MisFinance3/rest/rel/countDiscipulosPorGeracao HTTP/1.1" 200 949
0:0:0:0:0:0:0:1 - - [20/Jul/2018:17:44:34 -0300] "GET /MisFinance3/rest/rel/countDiscipulosPorRede HTTP/1.1" 200 1905
0:0:0:0:0:0:0:1 - - [20/Jul/2018:17:45:26 -0300] "GET /MisFinance3/rest/rel/countUltimosDiscipulosRegistrados HTTP/1.1" 200 25
0:0:0:0:0:0:0:1 - - [20/Jul/2018:17:45:29 -0300] "GET /MisFinance3/rest/rel/countDiscipulosPorGeracao HTTP/1.1" 200 949
0:0:0:0:0:0:0:1 - - [20/Jul/2018:17:45:47 -0300] "GET /MisFinance3/rest/rel/countDiscipulosPorRede HTTP/1.1" 200 1905
212.47.244.68 - - [20/Jul/2018:18:14:54 -0300] "GET / HTTP/1.1" 404 951
110.77.215.239 - - [20/Jul/2018:18:15:51 -0300] "GET / HTTP/1.1" 404 951
46.174.243.42 - - [20/Jul/2018:18:39:57 -0300] "GET / HTTP/1.1" 404 951
212.47.227.163 - - [20/Jul/2018:18:53:59 -0300] "GET / HTTP/1.1" 404 951
127.0.0.1 - - [20/Jul/2018:19:22:13 -0300] "GET / HTTP/1.1" 404 951
0:0:0:0:0:0:0:1 - - [20/Jul/2018:19:23:06 -0300] "GET /MisFinance3/rest/rel/countDiscipulosTotal HTTP/1.1" 500 4346
127.0.0.1 - - [20/Jul/2018:19:24:56 -0300] "GET / HTTP/1.1" 404 951
0:0:0:0:0:0:0:1 - - [20/Jul/2018:19:25:08 -0300] "GET /MisFinance3/rest/rel/countDiscipulosTotal HTTP/1.1" 500 4683
127.0.0.1 - - [20/Jul/2018:19:26:39 -0300] "GET / HTTP/1.1" 404 951
191.23.5.72 - - [20/Jul/2018:19:29:36 -0300] "GET / HTTP/1.1" 404 951
0:0:0:0:0:0:0:1 - - [20/Jul/2018:19:32:31 -0300] "GET /MisFinance3/rest/rel/countDiscipulosTotal HTTP/1.1" 500 4683
127.0.0.1 - - [20/Jul/2018:19:34:44 -0300] "GET / HTTP/1.1" 404 951
0:0:0:0:0:0:0:1 - - [20/Jul/2018:19:34:56 -0300] "GET /MisFinance3/rest/rel/countDiscipulosTotal HTTP/1.1" 500 4683
127.0.0.1 - - [20/Jul/2018:19:35:40 -0300] "GET / HTTP/1.1" 404 951
0:0:0:0:0:0:0:1 - - [20/Jul/2018:19:35:53 -0300] "GET /MisFinance3/rest/rel/countDiscipulosTotal HTTP/1.1" 500 4683
186.225.10.140 - - [20/Jul/2018:19:42:58 -0300] "GET / HTTP/1.0" 404 951
212.47.244.68 - - [20/Jul/2018:21:15:04 -0300] "GET / HTTP/1.1" 404 951
184.105.139.69 - - [20/Jul/2018:21:32:26 -0300] "GET / HTTP/1.1" 404 951
177.188.200.131 - - [20/Jul/2018:21:33:54 -0300] "GET / HTTP/1.1" 404 951
191.255.255.187 - - [20/Jul/2018:21:49:46 -0300] "GET / HTTP/1.1" 404 951
45.226.223.203 - - [20/Jul/2018:22:04:51 -0300] "GET / HTTP/1.1" 404 951
78.108.177.52 - - [20/Jul/2018:22:09:21 -0300] "GET / HTTP/1.0" 404 951
46.174.191.31 - - [20/Jul/2018:22:52:52 -0300] "GET / HTTP/1.0" 404 951
78.108.177.51 - - [20/Jul/2018:23:12:54 -0300] "GET / HTTP/1.0" 404 951
127.0.0.1 - - [20/Jul/2018:23:30:47 -0300] "GET / HTTP/1.1" 404 951
0:0:0:0:0:0:0:1 - - [20/Jul/2018:23:32:34 -0300] "GET /MisFinance3/rest/rel/countDiscipulosTotal HTTP/1.1" 200 341
157.25.133.152 - - [20/Jul/2018:23:49:11 -0300] "GET / HTTP/1.1" 404 951
